%YAML 1.1
%TAG !u! tag:unity3d.com,2011:
--- !u!114 &11400000
MonoBehaviour:
  m_ObjectHideFlags: 0
  m_CorrespondingSourceObject: {fileID: 0}
  m_PrefabInstance: {fileID: 0}
  m_PrefabAsset: {fileID: 0}
  m_GameObject: {fileID: 0}
  m_Enabled: 1
  m_EditorHideFlags: 0
  m_Script: {fileID: 11500000, guid: 48b5f1d56399fc04fa70fe076a44671d, type: 3}
  m_Name: Shape
  m_EditorClassIdentifier: 
  planetRadious: 500
  noiseLayers:
  - enabled: 1
    useFirstLayerAsMask: 0
    noiseSettings:
      filterType: 0
      simpleNoiseSettings:
        strength: 5.67
        numLayers: 4
        roughness: 4.71
        baseRoughness: 2.49
        persistence: 0.75
        minValue: 0.98
        center: {x: 0, y: 0, z: 0}
      ridgidNoiseSetings:
        strength: 1
        numLayers: 1
        roughness: 2
        baseRoughness: 1
        persistence: 0.5
        minValue: 0
        center: {x: 0, y: 0, z: 0}
        weightMultiplier: 0.8
  - enabled: 1
    useFirstLayerAsMask: 1
    noiseSettings:
      filterType: 1
      simpleNoiseSettings:
        strength: 100
        numLayers: 4
        roughness: 2.8
        baseRoughness: 1.9
        persistence: 0.5
        minValue: 0.93
        center: {x: 0, y: 0, z: 0}
      ridgidNoiseSetings:
        strength: 1.33
        numLayers: 4
        roughness: 3.3
        baseRoughness: 1.5
        persistence: 0.69
        minValue: 0.37
        center: {x: -1.25, y: 0, z: 0}
        weightMultiplier: 0.76
